KeyENG;ValuePL;NumberRepeat
wide;szeroki;50
well maintained;dobrze utrzymany;50
well located;dobrze ulokowany;50
well equipped;dobrze wyposarzony;50
well designed;dobrze zaprojektowany;50
up-to-date;na czasie;50
sustainable;stabilne;50
sustain;ponieść;50
successful;udany;50
successful;odnoszący sukcesy;50
success;sukces;50
specific;specyficzne;50
specialize;specializować;50
special;specjalny;50
spacious;przestronny;50
society;społeczeństwo;50
social;społeczny;50
set-of-the-art.;nowoczesny;50
secure;bezpieczne;50
run-down;zniszczony;50
reservations;zastrzeżenia;50
really;naprawdę;50
raise;podnosić;50
quite;całkiem;50
prove;udowadniać;50
pretty;dosyć;50
perhaps;być może;50
old-fashionable;w starym stylu;50
not exactly;nie wystarczający;50
narrow;ograniczony;50
messy;nieporządny;50
mess;bałagan;50
found;uznany;50
fairly;dość;50
extremely;ektremalnie;50
entertainment;rozrywka;50
entertain;bawić;50
difficulties;trudności;50
difficult;trudny;50
cramped;ciasny;50
cooperation;współpraca;50
cooperate;współpracować;50
besides;oprócz;50
belongings;dobytek;50
belong;należeć;50
being;istota;50
badly-equipped;źle wyposarzony;50
awareness;świadomość;50
aware;świadomy;50
approximately;w przybliżeniu;50
approximate;przybliżony;50
addition;dodanie;50
